\relax 
\providecommand\hyper@newdestlabel[2]{}
\providecommand\zref@newlabel[2]{}
\@nameuse{bbl@beforestart}
\catcode `:\active 
\catcode `;\active 
\catcode `!\active 
\catcode `?\active 
\providecommand\HyperFirstAtBeginDocument{\AtBeginDocument}
\HyperFirstAtBeginDocument{\ifx\hyper@anchor\@undefined
\global\let\oldcontentsline\contentsline
\gdef\contentsline#1#2#3#4{\oldcontentsline{#1}{#2}{#3}}
\global\let\oldnewlabel\newlabel
\gdef\newlabel#1#2{\newlabelxx{#1}#2}
\gdef\newlabelxx#1#2#3#4#5#6{\oldnewlabel{#1}{{#2}{#3}}}
\AtEndDocument{\ifx\hyper@anchor\@undefined
\let\contentsline\oldcontentsline
\let\newlabel\oldnewlabel
\fi}
\fi}
\global\let\hyper@last\relax 
\gdef\HyperFirstAtBeginDocument#1{#1}
\providecommand\HyField@AuxAddToFields[1]{}
\providecommand\HyField@AuxAddToCoFields[2]{}
\providecommand\pbs@newkey[2]{}
\providecommand\pbs@seq@push@cx[2]{}
\providecommand\pbs@at@end@dvi@check{}
\pbs@at@end@dvi@check
\providecommand\@anim@newkey[2]{}
\pbs@newkey{pbs@last@page}{1}
\babel@aux{french}{}
\pbs@newkey{pbs@last@page}{2}
\pbs@newkey{pbs@last@page}{3}
\@writefile{toc}{\contentsline {section}{\numberline {1}Introduction}{3}{section.1}\protected@file@percent }
\newlabel{para:introduction}{{1}{3}{Introduction}{section.1}{}}
\pbs@newkey{pbs@last@page}{4}
\@writefile{toc}{\contentsline {section}{\numberline {2}Les fichiers de sortie}{4}{section.2}\protected@file@percent }
\newlabel{para:output}{{2}{4}{Les fichiers de sortie}{section.2}{}}
\@writefile{toc}{\contentsline {subsection}{\numberline {2.1}Surface}{4}{subsection.2.1}\protected@file@percent }
\newlabel{para:output_surface}{{2.1}{4}{Surface}{subsection.2.1}{}}
\pbs@newkey{pbs@last@page}{5}
\@writefile{toc}{\contentsline {subsection}{\numberline {2.2}Mélange de gaz atmosphérique}{5}{subsection.2.2}\protected@file@percent }
\newlabel{para:output_gas}{{2.2}{5}{Mélange de gaz atmosphérique}{subsection.2.2}{}}
\pbs@newkey{pbs@last@page}{6}
\@writefile{lof}{\contentsline {figure}{\numberline {1}{\ignorespaces }}{6}{figure.1}\protected@file@percent }
\newlabel{fig:diedre2tetra}{{1}{6}{}{figure.1}{}}
\@writefile{lof}{\contentsline {figure}{\numberline {2}{\ignorespaces }}{6}{figure.2}\protected@file@percent }
\newlabel{fig:cube2diedre}{{2}{6}{}{figure.2}{}}
\pbs@newkey{pbs@last@page}{7}
\@writefile{lof}{\contentsline {figure}{\numberline {3}{\ignorespaces }}{7}{figure.3}\protected@file@percent }
\newlabel{fig:cube2tetra}{{3}{7}{}{figure.3}{}}
\pbs@newkey{pbs@last@page}{8}
\@writefile{toc}{\contentsline {subsection}{\numberline {2.3}Nuages et brumes}{8}{subsection.2.3}\protected@file@percent }
\newlabel{para:output_clouds}{{2.3}{8}{Nuages et brumes}{subsection.2.3}{}}
\pbs@newkey{pbs@last@page}{9}
\pbs@newkey{pbs@last@page}{10}
\newlabel{eq:normalization}{{4}{10}{Nuages et brumes}{equation.2.4}{}}
\pbs@newkey{pbs@last@page}{11}
\newlabel{eq:alpha_norm}{{5}{11}{Nuages et brumes}{equation.2.5}{}}
\pbs@newkey{pbs@last@page}{12}
\@writefile{toc}{\contentsline {section}{\numberline {3}Concepts et fonctionnement général}{12}{section.3}\protected@file@percent }
\newlabel{para:concepts}{{3}{12}{Concepts et fonctionnement général}{section.3}{}}
\@writefile{toc}{\contentsline {subsection}{\numberline {3.1}Surface}{12}{subsection.3.1}\protected@file@percent }
\newlabel{para:concepts_surface}{{3.1}{12}{Surface}{subsection.3.1}{}}
\newlabel{eq:vertex_altitude_interpolation}{{6}{12}{Surface}{equation.3.6}{}}
\pbs@newkey{pbs@last@page}{13}
\@writefile{lof}{\contentsline {figure}{\numberline {4}{\ignorespaces }}{13}{figure.4}\protected@file@percent }
\newlabel{fig:VIMS_cube_single}{{4}{13}{}{figure.4}{}}
\@writefile{lof}{\contentsline {figure}{\numberline {5}{\ignorespaces }}{13}{figure.5}\protected@file@percent }
\newlabel{fig:VIMS_cube_4_3groups}{{5}{13}{}{figure.5}{}}
\citation{Jennings:2019}
\pbs@newkey{pbs@last@page}{14}
\@writefile{lof}{\contentsline {figure}{\numberline {6}{\ignorespaces }}{14}{figure.6}\protected@file@percent }
\newlabel{fig:grid_sewing}{{6}{14}{}{figure.6}{}}
\@writefile{toc}{\contentsline {subsection}{\numberline {3.2}Aérosols}{14}{subsection.3.2}\protected@file@percent }
\newlabel{para:concepts_clouds}{{3.2}{14}{Aérosols}{subsection.3.2}{}}
\@writefile{toc}{\contentsline {subsubsection}{\numberline {3.2.1}Le coefficient d'extinction totale}{14}{subsubsection.3.2.1}\protected@file@percent }
\newlabel{para:kext_clouds}{{3.2.1}{14}{Le coefficient d'extinction totale}{subsubsection.3.2.1}{}}
\pbs@newkey{pbs@last@page}{15}
\@writefile{toc}{\contentsline {subsubsection}{\numberline {3.2.2}L'albédo de diffusion simple}{15}{subsubsection.3.2.2}\protected@file@percent }
\newlabel{para:w_clouds}{{3.2.2}{15}{L'albédo de diffusion simple}{subsubsection.3.2.2}{}}
\pbs@newkey{pbs@last@page}{16}
\@writefile{lof}{\contentsline {figure}{\numberline {7}{\ignorespaces }}{16}{figure.7}\protected@file@percent }
\newlabel{fig:interpolation_albedo}{{7}{16}{}{figure.7}{}}
\pbs@newkey{pbs@last@page}{17}
\@writefile{toc}{\contentsline {subsubsection}{\numberline {3.2.3}La fonction de phase de diffusion}{17}{subsubsection.3.2.3}\protected@file@percent }
\newlabel{para:phase_clouds}{{3.2.3}{17}{La fonction de phase de diffusion}{subsubsection.3.2.3}{}}
\@writefile{toc}{\contentsline {subsection}{\numberline {3.3}Mélange de gaz}{17}{subsection.3.3}\protected@file@percent }
\newlabel{para:concepts_gas}{{3.3}{17}{Mélange de gaz}{subsection.3.3}{}}
\pbs@newkey{pbs@last@page}{18}
\@writefile{lof}{\contentsline {figure}{\numberline {8}{\ignorespaces }}{18}{figure.8}\protected@file@percent }
\newlabel{fig:interpolation_C}{{8}{18}{}{figure.8}{}}
\pbs@newkey{pbs@last@page}{19}
\pbs@newkey{pbs@last@page}{20}
\@writefile{toc}{\contentsline {section}{\numberline {4}Données de base}{20}{section.4}\protected@file@percent }
\newlabel{para:input}{{4}{20}{Données de base}{section.4}{}}
\@writefile{toc}{\contentsline {subsection}{\numberline {4.1}Le fichier {\it  data.in}}{20}{subsection.4.1}\protected@file@percent }
\newlabel{para:input_data.in}{{4.1}{20}{Le fichier {\it data.in}}{subsection.4.1}{}}
\@writefile{toc}{\contentsline {paragraph}{Informations générales}{20}{section*.2}\protected@file@percent }
\@writefile{toc}{\contentsline {paragraph}{Surface}{20}{section*.3}\protected@file@percent }
\@writefile{toc}{\contentsline {paragraph}{Mélange de gaz atmosphérique}{20}{section*.4}\protected@file@percent }
\pbs@newkey{pbs@last@page}{21}
\@writefile{toc}{\contentsline {paragraph}{Aérosols}{21}{section*.5}\protected@file@percent }
\pbs@newkey{pbs@last@page}{22}
\@writefile{toc}{\contentsline {subsection}{\numberline {4.2}Identifiants des méthodes d'interpolation et d'extrapolation des données de base}{22}{subsection.4.2}\protected@file@percent }
\newlabel{para:input_methods}{{4.2}{22}{Identifiants des méthodes d'interpolation et d'extrapolation des données de base}{subsection.4.2}{}}
\@writefile{toc}{\contentsline {paragraph}{Méthodes d'interpolation selon la verticale, entre deux niveaux verticaux successifs où la donnée est fournie:}{22}{section*.6}\protected@file@percent }
\@writefile{toc}{\contentsline {paragraph}{Méthodes d'interpolation selon la dimension spectrale, entre deux longueurs d'onde successives où la donnée est fournie:}{22}{section*.7}\protected@file@percent }
\@writefile{toc}{\contentsline {paragraph}{Méthodes d'extrapolation selon la verticale, donc pour une position située en dehors de la zone spatiale couverte par les données:}{22}{section*.8}\protected@file@percent }
\@writefile{toc}{\contentsline {paragraph}{Méthodes d'extrapolation selon la dimension spectrale, donc pour une longueur d'onde située en dehors de la zone spectrale couverte par les données:}{22}{section*.9}\protected@file@percent }
\citation{Jennings:2019}
\pbs@newkey{pbs@last@page}{23}
\@writefile{toc}{\contentsline {subsection}{\numberline {4.3}Le fichier {\it  default\_reflectivity.dat}}{23}{subsection.4.3}\protected@file@percent }
\newlabel{para:input_default_reflectivity.dat}{{4.3}{23}{Le fichier {\it default\_reflectivity.dat}}{subsection.4.3}{}}
\@writefile{toc}{\contentsline {subsection}{\numberline {4.4}Le fichier {\it  surface\_temperature.dat}}{23}{subsection.4.4}\protected@file@percent }
\newlabel{para:input_surface_temperature.dat}{{4.4}{23}{Le fichier {\it surface\_temperature.dat}}{subsection.4.4}{}}
\@writefile{toc}{\contentsline {subsection}{\numberline {4.5}Le fichier {\it  VIMS\_cubes\_definition.dat}}{23}{subsection.4.5}\protected@file@percent }
\newlabel{para:input_VIMS_cubes_definiton.dat}{{4.5}{23}{Le fichier {\it VIMS\_cubes\_definition.dat}}{subsection.4.5}{}}
\@writefile{toc}{\contentsline {subsection}{\numberline {4.6}Les fichiers {\it  VIMS\_cube*.dat}}{23}{subsection.4.6}\protected@file@percent }
\newlabel{para:input_VIMS_cube.dat}{{4.6}{23}{Les fichiers {\it VIMS\_cube*.dat}}{subsection.4.6}{}}
\@writefile{toc}{\contentsline {subsection}{\numberline {4.7}Les fichiers {\it  lambda\_cube*.dat}}{23}{subsection.4.7}\protected@file@percent }
\newlabel{para:input_lambda_cube.dat}{{4.7}{23}{Les fichiers {\it lambda\_cube*.dat}}{subsection.4.7}{}}
\citation{Vinatier:2020}
\pbs@newkey{pbs@last@page}{24}
\@writefile{toc}{\contentsline {subsection}{\numberline {4.8}Le fichier {\it  haze\_zones.in}}{24}{subsection.4.8}\protected@file@percent }
\newlabel{para:input_haze_zones.in}{{4.8}{24}{Le fichier {\it haze\_zones.in}}{subsection.4.8}{}}
\@writefile{toc}{\contentsline {subsection}{\numberline {4.9}Le répertoire {\it  kext\_haze}}{24}{subsection.4.9}\protected@file@percent }
\newlabel{para:kext_haze}{{4.9}{24}{Le répertoire {\it kext\_haze}}{subsection.4.9}{}}
\@writefile{toc}{\contentsline {subsection}{\numberline {4.10}Le fichier {\it  ssaTomasko\_Hirtzig.dat}}{24}{subsection.4.10}\protected@file@percent }
\newlabel{para:ssaTomasko_Hirtzig.dat}{{4.10}{24}{Le fichier {\it ssaTomasko\_Hirtzig.dat}}{subsection.4.10}{}}
\@writefile{toc}{\contentsline {subsection}{\numberline {4.11}Le fichier {\it  fonction\_phase\_haze\_Titan\_80km.txt}}{24}{subsection.4.11}\protected@file@percent }
\newlabel{para:fonction_phase_haze_Titan_80km.txt}{{4.11}{24}{Le fichier {\it fonction\_phase\_haze\_Titan\_80km.txt}}{subsection.4.11}{}}
\@writefile{toc}{\contentsline {subsection}{\numberline {4.12}Les tables de CK pour les espèces gazeuses}{24}{subsection.4.12}\protected@file@percent }
\newlabel{para:tables_CK}{{4.12}{24}{Les tables de CK pour les espèces gazeuses}{subsection.4.12}{}}
\pbs@newkey{pbs@last@page}{25}
\@writefile{toc}{\contentsline {subsection}{\numberline {4.13}Les profils d'abondance}{25}{subsection.4.13}\protected@file@percent }
\newlabel{para:porifls_abondance}{{4.13}{25}{Les profils d'abondance}{subsection.4.13}{}}
\pbs@newkey{pbs@last@page}{26}
\@writefile{toc}{\contentsline {section}{\numberline {5}Compilation et exécution}{26}{section.5}\protected@file@percent }
\newlabel{para:run}{{5}{26}{Compilation et exécution}{section.5}{}}
\pbs@newkey{pbs@last@page}{27}
\@writefile{toc}{\contentsline {section}{\numberline {6}Validité des sorties}{27}{section.6}\protected@file@percent }
\newlabel{para:check}{{6}{27}{Validité des sorties}{section.6}{}}
\@writefile{toc}{\contentsline {subsection}{\numberline {6.1}read\_surface\_grid\_file}{27}{subsection.6.1}\protected@file@percent }
\@writefile{toc}{\contentsline {subsection}{\numberline {6.2}read\_surface\_properties\_file}{27}{subsection.6.2}\protected@file@percent }
\@writefile{toc}{\contentsline {subsection}{\numberline {6.3}read\_volume\_grid\_file}{27}{subsection.6.3}\protected@file@percent }
\pbs@newkey{pbs@last@page}{28}
\@writefile{toc}{\contentsline {subsection}{\numberline {6.4}read\_gas\_radiative\_properties\_file}{28}{subsection.6.4}\protected@file@percent }
\@writefile{toc}{\contentsline {subsection}{\numberline {6.5}read\_gas\_thermodynamic\_properties\_file}{28}{subsection.6.5}\protected@file@percent }
\@writefile{toc}{\contentsline {subsection}{\numberline {6.6}read\_clouds\_radiative\_properties\_file}{28}{subsection.6.6}\protected@file@percent }
\pbs@newkey{pbs@last@page}{29}
\@writefile{toc}{\contentsline {subsection}{\numberline {6.7}read\_clouds\_phase\_function\_file}{29}{subsection.6.7}\protected@file@percent }
\@writefile{toc}{\contentsline {subsection}{\numberline {6.8}run\_tests.bash}{29}{subsection.6.8}\protected@file@percent }
\@writefile{toc}{\contentsline {subsection}{\numberline {6.9}vtk4cloud}{29}{subsection.6.9}\protected@file@percent }
\pbs@newkey{pbs@last@page}{30}
\@writefile{toc}{\contentsline {subsection}{\numberline {6.10}vtk4gas}{30}{subsection.6.10}\protected@file@percent }
\bibstyle{unsrt}
\bibdata{biblio}
\bibcite{Jennings:2019}{1}
\pbs@newkey{pbs@last@page}{31}
\@writefile{toc}{\contentsline {subsection}{\numberline {6.11}visualisation de la géométrie de surface avec matériaux}{31}{subsection.6.11}\protected@file@percent }
\@writefile{lof}{\contentsline {figure}{\numberline {9}{\ignorespaces }}{31}{figure.9}\protected@file@percent }
\newlabel{fig:sphere_materials}{{9}{31}{}{figure.9}{}}
\bibcite{Vinatier:2020}{2}
\pbs@newkey{pbs@last@page}{32}
