\begin{thebibliography}{1}

\bibitem{Jennings:2019}
D.E. Jennings and al.
\newblock Titan surface temperatures during the cassini mission.
\newblock {\em The Astrophysical Journal Letters}, 877:L8, 2019.

\bibitem{Vinatier:2020}
S.~Vinatier and al.
\newblock Temperature and chemical species distributions in the middle
  atmosphere observed during titan’s late northern spring to early summer.
\newblock {\em Astronomy \& Astrophysics}, 641, A116, 2020.

\end{thebibliography}
