    P(mbar)       CH4 Volume mixing ratio
    1.4670E+03    0.56500E-01
    1.0514E+03    0.56500E-01
    0.9699E+03    0.49900E-01
    0.9094E+03    0.43900E-01
    0.8274E+03    0.39700E-01
    0.7249E+03    0.33600E-01
    0.6658E+03    0.30200E-01
    0.6209E+03    0.28300E-01
    0.5632E+03    0.26000E-01
    0.4770E+03    0.23300E-01
    0.3907E+03    0.20200E-01
    0.3024E+03    0.18000E-01
    0.2144E+03    0.16400E-01
    0.1552E+03    0.15300E-01
    0.1125E+03    0.14800E-01
    0.1000E+01    0.14800E-01